﻿[
  {
    "outputFile": "Areas/Companies/Styles/Employees/work-for-day.css",
    "inputFile": "Areas/Companies/Styles/Employees/work-for-day.less"
  },
  {
    "outputFile": "Areas/Companies/Styles/Employees/deduction.css",
    "inputFile": "Areas/Companies/Styles/Employees/deduction.less"
  },
  {
    "outputFile": "Content/bootstrap-override.css",
    "inputFile": "Content/bootstrap-override.less"
  },
  {
    "outputFile": "Content/Site.css",
    "inputFile": "Content/Site.less"
  },
  {
    "outputFile": "Content/custom-toggle.css",
    "inputFile": "Content/custom-toggle.less"
  },
  {
    "outputFile": "Areas/Companies/Styles/TimeCardLogImport/import-timesheet.css",
    "inputFile": "Areas/Companies/Styles/TimeCardLogImport/import-timesheet.less"
  },
  {
    "outputFile": "Content/file-drop-zone.css",
    "inputFile": "Content/file-drop-zone.less"
  }
]